EESchema Schematic File Version 4
EELAYER 30 0
EELAYER END
$Descr A4 11693 8268
encoding utf-8
Sheet 2 5
Title ""
Date ""
Rev ""
Comp ""
Comment1 ""
Comment2 ""
Comment3 ""
Comment4 ""
$EndDescr
$Comp
L Device:LED D2
U 1 1 606C2EF4
P 6300 3500
F 0 "D2" H 6293 3245 50  0000 C CNN
F 1 "GREEN" H 6293 3336 50  0000 C CNN
F 2 "LED_SMD:LED_1206_3216Metric_Pad1.42x1.75mm_HandSolder" H 6300 3500 50  0001 C CNN
F 3 "~" H 6300 3500 50  0001 C CNN
	1    6300 3500
	-1   0    0    1   
$EndComp
$Comp
L Device:R R2
U 1 1 606C3C52
P 5550 3500
F 0 "R2" V 5343 3500 50  0000 C CNN
F 1 "130" V 5434 3500 50  0000 C CNN
F 2 "Resistor_SMD:R_1206_3216Metric_Pad1.30x1.75mm_HandSolder" V 5480 3500 50  0001 C CNN
F 3 "~" H 5550 3500 50  0001 C CNN
	1    5550 3500
	0    1    1    0   
$EndComp
$Comp
L Device:LED D3
U 1 1 606CA29B
P 6300 4150
F 0 "D3" H 6293 3895 50  0000 C CNN
F 1 "YELLOW" H 6293 3986 50  0000 C CNN
F 2 "LED_SMD:LED_1206_3216Metric_Pad1.42x1.75mm_HandSolder" H 6300 4150 50  0001 C CNN
F 3 "~" H 6300 4150 50  0001 C CNN
	1    6300 4150
	-1   0    0    1   
$EndComp
$Comp
L Device:R R3
U 1 1 606CA2A1
P 5550 4150
F 0 "R3" V 5343 4150 50  0000 C CNN
F 1 "130" V 5434 4150 50  0000 C CNN
F 2 "Resistor_SMD:R_1206_3216Metric_Pad1.30x1.75mm_HandSolder" V 5480 4150 50  0001 C CNN
F 3 "~" H 5550 4150 50  0001 C CNN
	1    5550 4150
	0    1    1    0   
$EndComp
$Comp
L Device:LED D4
U 1 1 606CA817
P 6300 4850
F 0 "D4" H 6293 4595 50  0000 C CNN
F 1 "RED" H 6293 4686 50  0000 C CNN
F 2 "LED_SMD:LED_1206_3216Metric_Pad1.42x1.75mm_HandSolder" H 6300 4850 50  0001 C CNN
F 3 "~" H 6300 4850 50  0001 C CNN
	1    6300 4850
	-1   0    0    1   
$EndComp
$Comp
L Device:R R4
U 1 1 606CA81D
P 5550 4850
F 0 "R4" V 5343 4850 50  0000 C CNN
F 1 "150" V 5434 4850 50  0000 C CNN
F 2 "Resistor_SMD:R_1206_3216Metric_Pad1.30x1.75mm_HandSolder" V 5480 4850 50  0001 C CNN
F 3 "~" H 5550 4850 50  0001 C CNN
	1    5550 4850
	0    1    1    0   
$EndComp
Wire Wire Line
	6150 3500 5700 3500
Wire Wire Line
	6150 4150 5700 4150
Wire Wire Line
	6150 4850 5700 4850
Wire Wire Line
	4900 3500 5400 3500
Wire Wire Line
	4900 4150 5400 4150
$Comp
L Device:LED D1
U 1 1 6071FB96
P 6050 2900
F 0 "D1" H 6043 2645 50  0000 C CNN
F 1 "ON LED" H 6043 2736 50  0000 C CNN
F 2 "LED_SMD:LED_1812_4532Metric_Pad1.30x3.40mm_HandSolder" H 6050 2900 50  0001 C CNN
F 3 "~" H 6050 2900 50  0001 C CNN
	1    6050 2900
	-1   0    0    1   
$EndComp
$Comp
L Device:R R1
U 1 1 6071FB9C
P 5300 2900
F 0 "R1" V 5093 2900 50  0000 C CNN
F 1 "150" V 5184 2900 50  0000 C CNN
F 2 "Resistor_SMD:R_1206_3216Metric_Pad1.30x1.75mm_HandSolder" V 5230 2900 50  0001 C CNN
F 3 "~" H 5300 2900 50  0001 C CNN
	1    5300 2900
	0    1    1    0   
$EndComp
Wire Wire Line
	5900 2900 5450 2900
Text Notes 8000 7000 0    118  ~ 24
MTSMAT027\n
Text Notes 7500 7500 0    50   ~ 0
EEE3088F Status LEDs\n
Wire Wire Line
	5150 2900 4700 2900
Wire Wire Line
	4700 2900 4700 3650
Wire Wire Line
	4700 3650 3850 3650
Wire Wire Line
	4900 3500 4900 3750
Wire Wire Line
	4900 3750 3850 3750
Wire Wire Line
	4900 4150 4900 3850
Wire Wire Line
	4900 3850 3850 3850
Wire Wire Line
	4700 4850 4700 3950
Wire Wire Line
	4700 3950 3850 3950
Wire Wire Line
	4700 4850 5400 4850
Text GLabel 3850 3950 0    50   Input ~ 0
GPIO26
Text GLabel 3850 3650 0    50   Input ~ 0
Vin
Text GLabel 3850 3750 0    50   Input ~ 0
GPIO6
Text GLabel 3850 3850 0    50   Input ~ 0
GPIO16
Wire Wire Line
	6200 2900 7600 2900
Wire Wire Line
	6450 3500 7600 3500
Wire Wire Line
	6450 4150 7600 4150
Wire Wire Line
	6450 4850 7600 4850
Text GLabel 7600 2900 2    50   Input ~ 0
GND1
Text GLabel 7600 4850 2    50   Input ~ 0
GND8
Text GLabel 7600 4150 2    50   Input ~ 0
GND8
Text GLabel 7600 3500 2    50   Input ~ 0
GND8
$EndSCHEMATC
