PCBNEW-LibModule-V1  2021-06-04 03:50:27
# encoding utf-8
Units mm
$INDEX
SOT96P240X110-3N
$EndINDEX
$MODULE SOT96P240X110-3N
Po 0 0 0 15 60b994f3 00000000 ~~
Li SOT96P240X110-3N
Cd DMG2305UXQ-7-1
Kw MOSFET (P-Channel)
Sc 0
At SMD
AR 
Op 0 0 0
T0 0 0 1.27 1.27 0 0.254 N V 21 N "Q**"
T1 0 0 1.27 1.27 0 0.254 N I 21 N "SOT96P240X110-3N"
DS -1.85 -1.75 1.85 -1.75 0.05 24
DS 1.85 -1.75 1.85 1.75 0.05 24
DS 1.85 1.75 -1.85 1.75 0.05 24
DS -1.85 1.75 -1.85 -1.75 0.05 24
DS -0.65 -1.45 0.65 -1.45 0.1 24
DS 0.65 -1.45 0.65 1.45 0.1 24
DS 0.65 1.45 -0.65 1.45 0.1 24
DS -0.65 1.45 -0.65 -1.45 0.1 24
DS -0.65 -0.49 0.31 -1.45 0.1 24
DS -0.15 -1.45 0.15 -1.45 0.2 21
DS 0.15 -1.45 0.15 1.45 0.2 21
DS 0.15 1.45 -0.15 1.45 0.2 21
DS -0.15 1.45 -0.15 -1.45 0.2 21
DS -1.6 -1.535 -0.5 -1.535 0.2 21
$PAD
Po -1.05 -0.96
Sh "1" R 0.65 1.1 0 0 900
At SMD N 00888000
Ne 0 ""
$EndPAD
$PAD
Po -1.05 0.96
Sh "2" R 0.65 1.1 0 0 900
At SMD N 00888000
Ne 0 ""
$EndPAD
$PAD
Po 1.05 0
Sh "3" R 0.65 1.1 0 0 900
At SMD N 00888000
Ne 0 ""
$EndPAD
$EndMODULE SOT96P240X110-3N
$EndLIBRARY
