Version 4
SHEET 1 976 680
WIRE 144 0 112 0
WIRE 272 0 224 0
WIRE 368 0 352 0
WIRE 656 16 560 16
WIRE 816 16 736 16
WIRE 224 160 224 128
WIRE -544 176 -544 128
WIRE -400 176 -400 128
WIRE -16 176 -96 176
WIRE 112 176 112 0
WIRE 112 176 64 176
WIRE 192 176 112 176
WIRE 672 176 672 144
WIRE -256 192 -256 128
WIRE 368 192 368 0
WIRE 368 192 256 192
WIRE 432 192 368 192
WIRE 560 192 560 16
WIRE 560 192 512 192
WIRE 640 192 560 192
WIRE 192 208 128 208
WIRE 816 208 816 16
WIRE 816 208 704 208
WIRE 864 208 816 208
WIRE 640 224 576 224
WIRE 224 256 224 224
WIRE 128 272 128 208
WIRE 672 272 672 240
WIRE 576 288 576 224
WIRE -544 320 -544 256
WIRE -400 320 -400 256
WIRE -256 320 -256 272
FLAG -256 320 0
FLAG 128 272 0
FLAG 224 128 V+
IOPIN 224 128 In
FLAG 224 256 V-
IOPIN 224 256 In
FLAG -400 320 0
FLAG -544 320 0
FLAG -544 128 V+
IOPIN -544 128 In
FLAG -400 128 V-
IOPIN -400 128 In
FLAG 576 288 0
FLAG 672 144 V+
IOPIN 672 144 In
FLAG 672 272 V-
IOPIN 672 272 In
FLAG 864 208 Vout
IOPIN 864 208 Out
FLAG -256 128 Vin
IOPIN -256 128 In
FLAG -96 176 Vin
IOPIN -96 176 In
SYMBOL Opamps\\UniversalOpamp2 224 192 R0
SYMATTR InstName OP1
SYMATTR Value2 Avol=88 GBW=15Meg Slew=10Meg
SYMBOL res 80 160 R90
WINDOW 0 0 56 VBottom 2
WINDOW 3 32 56 VTop 2
SYMATTR InstName R1
SYMATTR Value 15k
SYMBOL res 240 -16 R90
WINDOW 0 0 56 VBottom 2
WINDOW 3 32 56 VTop 2
SYMATTR InstName R2
SYMATTR Value 10k
SYMBOL voltage -256 176 R0
WINDOW 123 0 0 Left 0
WINDOW 39 0 0 Left 0
SYMATTR InstName V1
SYMATTR Value 4.5
SYMBOL voltage -544 160 R0
WINDOW 123 0 0 Left 0
WINDOW 39 0 0 Left 0
SYMATTR InstName V2
SYMATTR Value 5
SYMBOL voltage -400 160 R0
WINDOW 123 0 0 Left 0
WINDOW 39 0 0 Left 0
SYMATTR InstName V3
SYMATTR Value -5
SYMBOL res 368 -16 R90
WINDOW 0 0 56 VBottom 2
WINDOW 3 32 56 VTop 2
SYMATTR InstName R3
SYMATTR Value 1k
SYMBOL Opamps\\UniversalOpamp2 672 208 R0
SYMATTR InstName OP2
SYMATTR Value2 Avol=88 GBW=15Meg Slew=10Meg
SYMBOL res 528 176 R90
WINDOW 0 0 56 VBottom 2
WINDOW 3 32 56 VTop 2
SYMATTR InstName R4
SYMATTR Value 15k
SYMBOL res 752 0 R90
WINDOW 0 0 56 VBottom 2
WINDOW 3 32 56 VTop 2
SYMATTR InstName R5
SYMATTR Value 15k
TEXT -616 376 Left 2 !.tran 1
