PCBNEW-LibModule-V1  2021-06-04 03:18:11
# encoding utf-8
Units mm
$INDEX
SOT95P285X140-6N
$EndINDEX
$MODULE SOT95P285X140-6N
Po 0 0 0 15 60b98d63 00000000 ~~
Li SOT95P285X140-6N
Cd 6-Pin SOT-26
Kw Integrated Circuit
Sc 0
At SMD
AR 
Op 0 0 0
T0 0 0 1.27 1.27 0 0.254 N V 21 N "IC**"
T1 0 0 1.27 1.27 0 0.254 N I 21 N "SOT95P285X140-6N"
DS -2.125 -1.8 2.125 -1.8 0.05 24
DS 2.125 -1.8 2.125 1.8 0.05 24
DS 2.125 1.8 -2.125 1.8 0.05 24
DS -2.125 1.8 -2.125 -1.8 0.05 24
DS -0.8 -1.5 0.8 -1.5 0.1 24
DS 0.8 -1.5 0.8 1.5 0.1 24
DS 0.8 1.5 -0.8 1.5 0.1 24
DS -0.8 1.5 -0.8 -1.5 0.1 24
DS -0.8 -0.55 0.15 -1.5 0.1 24
DS -0.375 -1.5 0.375 -1.5 0.2 21
DS 0.375 -1.5 0.375 1.5 0.2 21
DS 0.375 1.5 -0.375 1.5 0.2 21
DS -0.375 1.5 -0.375 -1.5 0.2 21
DS -1.875 -1.6 -0.725 -1.6 0.2 21
$PAD
Po -1.3 -0.95
Sh "1" R 0.6 1.15 0 0 900
At SMD N 00888000
Ne 0 ""
$EndPAD
$PAD
Po -1.3 0
Sh "2" R 0.6 1.15 0 0 900
At SMD N 00888000
Ne 0 ""
$EndPAD
$PAD
Po -1.3 0.95
Sh "3" R 0.6 1.15 0 0 900
At SMD N 00888000
Ne 0 ""
$EndPAD
$PAD
Po 1.3 0.95
Sh "4" R 0.6 1.15 0 0 900
At SMD N 00888000
Ne 0 ""
$EndPAD
$PAD
Po 1.3 0
Sh "5" R 0.6 1.15 0 0 900
At SMD N 00888000
Ne 0 ""
$EndPAD
$PAD
Po 1.3 -0.95
Sh "6" R 0.6 1.15 0 0 900
At SMD N 00888000
Ne 0 ""
$EndPAD
$EndMODULE SOT95P285X140-6N
$EndLIBRARY
